{
    "js": {
        "jquery": {
            "cdn": "https://ajax.googleapis.com/ajax/libs/jquery/3.4.1/jquery.min.js",
            "version": "3.4.1",
            "alternative": "jquery/dist/jquery.min.js"
        },
        "openlayers": {
            "cdn": "https://cdnjs.cloudflare.com/ajax/libs/ol3/3.17.1/ol.js",
            "version": "3.17.1",
            "debug": true
        },
        "googlemaps": {
            "cdn": "http://maps.google.com/maps/api/js?v=3&sensor=false",
            "version": "3.10.1",
            "alternative": false
        },
        "bootstrap": {
            "cdn": "https://maxcdn.bootstrapcdn.com/bootstrap/4.0.0/js/bootstrap.min.js",
            "version": "4.0.0",
            "sha": "sha384-JZR6Spejh4U02d8jOt6vLEHfe/JQGiRRSQQxSfFWpi1MquVdAyjUar5+76PVCmYl",
            "alternative": "bootstrap/dist/js/bootstrap.bundle.min.js"
        },
        "summernote": {     
            "cdn": "https://cdn.jsdelivr.net/npm/summernote@0.8.16/dist/summernote.min.js"
        },
        "popper": {
            "cdn": "https://cdnjs.cloudflare.com/ajax/libs/popper.js/1.12.9/umd/popper.min.js",
            "alternative": "popper.js/dist/umd/popper.js"            
        }
    },
    "css": {
        "openlayers": {
            "cdn": "https://cdnjs.cloudflare.com/ajax/libs/ol3/3.17.1/ol.css",
            "version": "3.17.1",
            "alternative": "openlayers/ol.css"
        },
        "bootstrap": {
            "cdn": "https://maxcdn.bootstrapcdn.com/bootstrap/4.0.0/css/bootstrap.min.css",
            "alternative": "bootstrap/dist/css/bootstrap.min.css"
        },
        "summernote": {
            "cdn": "https://cdn.jsdelivr.net/npm/summernote@0.8.16/dist/summernote.min.css",
            "alternative": "openlayers/ol.css"
        },
        "FontAwesome": {
            "cdn": "https://stackpath.bootstrapcdn.com/font-awesome/4.7.0/css/font-awesome.min.css"
        }
    }
}
